module gitlab.com/ekdiaz08/grpc-gateway

go 1.18

require (
	github.com/felixge/httpsnoop v1.0.2
	github.com/grpc-ecosystem/grpc-gateway/v2 v2.10.0
	google.golang.org/genproto v0.0.0-20220426171045-31bebdecfb46
	google.golang.org/grpc v1.46.0
	google.golang.org/protobuf v1.28.0
)

require (
	github.com/golang/protobuf v1.5.2 // indirect
	golang.org/x/net v0.0.0-20220127200216-cd36cc0744dd // indirect
	golang.org/x/sys v0.0.0-20211216021012-1d35b9e2eb4e // indirect
	golang.org/x/text v0.3.7 // indirect
)
